Data wrangling with field data
…
Rows: 96 Columns: 5
── Column specification
──────────────────────────────────────────────────────── Delimiter: "," chr
(4): transect, section, tick_species, tick_stage dbl (1): tick_count
ℹ Use `spec()` to retrieve the full column specification for this data. ℹ
Specify the column types or set `show_col_types = FALSE` to quiet this message.
• `` -> `...1`
• `` -> `...7`
• `` -> `...8`
• `` -> `...9`
• `` -> `...10`
• `` -> `...11`
• `` -> `...12`

# A tibble: 96 × 5
   transect section tick_species tick_stage tick_count
   <chr>    <chr>   <chr>        <chr>           <dbl>
 1 wood     a       Ix           A                   0
 2 wood     a       Ix           N                   0
 3 wood     a       Ix           L                   0
 4 wood     b       Ix           A                   0
 5 wood     b       Ix           N                   0
 6 wood     b       Ix           L                   0
 7 wood     c       Ix           A                   0
 8 wood     c       Ix           N                   0
 9 wood     c       Ix           L                   0
10 wood     d       Ix           A                   0
# ℹ 86 more rows
…
Specify the column types or set `show_col_types = FALSE` to quiet this message.
• `` -> `...1`
• `` -> `...2`
• `` -> `...3`
• `` -> `...4`
• `` -> `...5`
• `` -> `...6`
• `` -> `...7`
• `` -> `...8`
• `` -> `...9`
• `` -> `...10`
• `` -> `...11`
• `` -> `...12`

# A tibble: 98 × 5
   ...2     ...3    ...4         ...5       ...6      
   <chr>    <chr>   <chr>        <chr>      <chr>     
 1 <NA>     <NA>    <NA>         <NA>       <NA>      
 2 transect section tick_species tick_stage tick_count
 3 wood     a       Ix           A          0         
 4 wood     a       Ix           N          0         
 5 wood     a       Ix           L          0         
 6 wood     b       Ix           A          N/A       
 7 wood     b       Ix           N          N/A       
 8 wood     b       Ix           L          N/A       
 9 wood     c       Ix           A          N/A       
10 wood     c       Ix           N          N/A       
# ℹ 88 more rows
…
shell.exec(paste0(sheet_folder, "001_6_22_23_PostTreatment2.csv"))

Open 001_6_22_23_PostTreatment2.csv in excel

Troubleshooting (2c)

Lets open it as an excel file

read_excel(paste0(sheet_folder, "001_6_22_23_PostTreatment2.csv"), skip = 4)

New names:
• `` -> `...6`
• `` -> `...7`

# A tibble: 96 × 7
   transect section tick_species tick_stage tick_count ...6  ...7 
   <chr>    <chr>   <chr>        <chr>      <chr>      <lgl> <lgl>
 1 wood     a       Ix           A          NA         NA    NA   
 2 wood     a       Ix           N          NA         NA    NA   
 3 wood     a       Ix           L          NA         NA    NA   
 4 wood     b       Ix           A          NA         NA    NA   
 5 wood     b       Ix           N          NA         NA    NA   
 6 wood     b       Ix           L          NA         NA    NA   
 7 wood     c       Ix           A          0          NA    NA   
 8 wood     c       Ix           N          0          NA    NA   
 9 wood     c       Ix           L          0          NA    NA   
10 wood     d       Ix           A          0          NA    NA   
# ℹ 86 more rows
…
combined_sheets_temp %>% 
  select(datasheet, temp_data) %>% 
  unnest(cols = c(temp_data)) %>% 
  ## turn the tick count column back to numeric
  ## if this doesn't work the cell will turn into NA
  mutate(temp_count = as.numeric(tick_count)) %>% 
  filter(!is.na(tick_count)) %>% 
  filter(is.na(temp_count))

Warning: There was 1 warning in `mutate()`.
ℹ In argument: `temp_count = as.numeric(tick_count)`.
Caused by warning:
! NAs introduced by coercion

# A tibble: 7,105 × 7
   datasheet      transect section tick_species tick_stage tick_count temp_count
   <chr>          <chr>    <chr>   <chr>        <chr>      <chr>           <dbl>
 1 001_060523_pr… wood     b       Ix           A          N/A                NA
 2 001_060523_pr… wood     b       Ix           N          N/A                NA
 3 001_060523_pr… wood     b       Ix           L          N/A                NA
 4 001_060523_pr… wood     c       Ix           A          N/A                NA
 5 001_060523_pr… wood     c       Ix           N          N/A                NA
 6 001_060523_pr… wood     c       Ix           L          N/A                NA
 7 001_060523_pr… wood     d       Ix           A          N/A                NA
 8 001_060523_pr… wood     d       Ix           N          N/A                NA
 9 001_060523_pr… wood     d       Ix           L          N/A                NA
10 001_060523_pr… wood-ec… b       Ix           A          N/A                NA
# ℹ 7,095 more rows
…
 [1] "009_072823_posttreatment3.csv"    "026 06_06_2023.csv"              
 [3] "030 06_06_2023 Pre_Treatment.csv" "031 06_06_2023 Pre_Treatment.csv"
 [5] "048 6_12_23.csv"                  "048 6_6_23.csv"                  
 [7] "049 6_6_23.csv"                   "051_7_18_23.csv"                 
 [9] "065 6_12_23.csv"                  "067 6_12_23.csv"                 

Since there are just a few, it probably is easiest/best to fix by hand. To be save make a comment or keep a raw raw version.

Troubleshooting (3d)

combined_sheets %>% 
  filter(!(datasheet %in% temp_exclude)) %>% ## temp excluding the problem sheets
  unnest(cols = c(data))

# A tibble: 103,872 × 10
   datasheet  path_to_sheet filetype real_filetype transect section tick_species
   <chr>      <chr>         <chr>    <chr>         <chr>    <chr>   <chr>       
 1 001 07_07… C://Users//d… csv      csv           wood     a       Ix          
 2 001 07_07… C://Users//d… csv      csv           wood     a       Ix          
 3 001 07_07… C://Users//d… csv      csv           wood     a       Ix          
 4 001 07_07… C://Users//d… csv      csv           wood     b       Ix          
 5 001 07_07… C://Users//d… csv      csv           wood     b       Ix          
 6 001 07_07… C://Users//d… csv      csv           wood     b       Ix          
 7 001 07_07… C://Users//d… csv      csv           wood     c       Ix          
 8 001 07_07… C://Users//d… csv      csv           wood     c       Ix          
 9 001 07_07… C://Users//d… csv      csv           wood     c       Ix          
10 001 07_07… C://Users//d… csv      csv           wood     d       Ix          
# ℹ 103,862 more rows
# ℹ 3 more variables: tick_stage <chr>, tick_count <dbl>,
#   nr_rows_in_tibble <dbl>
…
as.numeric_possible <- possibly(.f = as.numeric, otherwise = 999)

step2 %>% mutate(temporal_temp = map_dbl(.x = temp, .f = as.numeric_possible)) %>% 
  select(datasheet, house, temp, temporal_temp) %>% 
  filter(temporal_temp == 999)

Warning: There were 29 warnings in `mutate()`.
The first warning was:
ℹ In argument: `temporal_temp = map_dbl(.x = temp, .f = as.numeric_possible)`.
Caused by warning:
! NAs introduced by coercion
ℹ Run `dplyr::last_dplyr_warnings()` to see the 28 remaining warnings.

# A tibble: 45 × 4
   datasheet                         house temp  temporal_temp
   <chr>                             <chr> <chr>         <dbl>
 1 029_06.27.2023_PostTreatment3.csv 29    83� F           999
 2 033_06.27.2023_PostTreatment3.csv 33    82� F           999
 3 034_06.22.2023_PostTreatment2.csv 34    84� F           999
 4 035_06.22.2023_PostTreatment2.csv 35    81� F           999
 5 036_06.22.2023_PostTreatment2.csv 36    83� F           999
 6 037_06.22.2023_PostTreatment2.csv 37    81� F           999
 7 038_06.22.2023_PostTreatment2.csv 38    81� F           999
 8 039_06.22.2023_PostTreatment2.csv 39    88� F           999
 9 040_06.21.2023_PostTreatment2.csv 40    75� F           999
10 041_06.21.2023_PostTreatment2.csv 41    77� F           999
# ℹ 35 more rows
…
Next VMC

step3 %>% mutate(VMC_numeric = as.numeric(VMC)) %>% filter(is.na(VMC_numeric))

Warning: There was 1 warning in `mutate()`.
ℹ In argument: `VMC_numeric = as.numeric(VMC)`.
Caused by warning:
! NAs introduced by coercion

# A tibble: 282 × 22
   datasheet          path_to_sheet  filetype real_filetype metadata house date 
   <chr>              <chr>          <chr>    <chr>         <list>   <chr> <chr>
 1 001 07_07_2023.csv C://Users//da… csv      csv           <dt>     1     7/7/…
 2 001 6_15_23.csv    C://Users//da… csv      csv           <dt>     1     6/15…
 3 002 07_07_2023.csv C://Users//da… csv      csv           <dt>     2     7/7/…
 4 002 6_15_23.csv    C://Users//da… csv      csv           <dt>     2     6/15…
 5 004 07_07_2023.csv C://Users//da… csv      csv           <dt>     4     7/7/…
 6 006 07_06_2023.csv C://Users//da… csv      csv           <dt>     6     7/6/…
 7 006 07_18_2023.csv C://Users//da… csv      csv           <dt>     6     7/18…
 8 007 07_07_2023.csv C://Users//da… csv      csv           <dt>     7     7/7/…
 9 008 07_06_2023.csv C://Users//da… csv      csv           <dt>     8     7/6/…
10 008 07_18_2023.csv C://Users//da… csv      csv           <dt>     8     7/18…
# ℹ 272 more rows
# ℹ 15 more variables: start_time <chr>, end_time <chr>, mowed <chr>,
#   temp <chr>, VMC <chr>, cloud_cover <chr>, w_person <chr>, we_person <chr>,
#   le.person <chr>, l_person <chr>, `le-person` <chr>, temporal_temp <dbl>,
#   temp_numeric <dbl>, temp_C <dbl>, VMC_numeric <dbl>
…
(step4a <- step4 %>% 
  filter(!is.na(start_time) | !is.na(end_time)) %>% 
  select(datasheet, start_time, end_time) %>% 
  mutate(start_time_hm = hm(start_time), 
         end_time_hm = hm(end_time)))

Warning: There were 2 warnings in `mutate()`.
The first warning was:
ℹ In argument: `start_time_hm = hm(start_time)`.
Caused by warning in `.parse_hms()`:
! Some strings failed to parse, or all strings are NAs
ℹ Run `dplyr::last_dplyr_warnings()` to see the 1 remaining warning.

# A tibble: 1,080 × 5
   datasheet                      start_time  end_time start_time_hm end_time_hm
   <chr>                          <chr>       <chr>    <Period>      <Period>   
 1 001 07_07_2023.csv             10:19       10:24    10H 19M 0S    10H 24M 0S 
 2 001 6_15_23.csv                9:05        9:24     9H 5M 0S      9H 24M 0S  
 3 001_060523_pretreatment.csv    9:10        9:40     9H 10M 0S     9H 40M 0S  
 4 001_062623_posttreatment3.csv  9:47        10:00    9H 47M 0S     10H 0M 0S  
 5 001_071423_posttreatment1.csv  1:15        1:20     1H 15M 0S     1H 20M 0S  
 6 001_071923_posttreatment2.csv  2:20        2:30     2H 20M 0S     2H 30M 0S  
 7 001_072823_posttreatment3.csv  3:00        3:05     3H 0M 0S      3H 5M 0S   
 8 001_080323_posttreatment8.csv  12:15       12:23    12H 15M 0S    12H 23M 0S 
 9 001_6_15_23_posttreatment1.csv 9:05        9:24     9H 5M 0S      9H 24M 0S  
10 001_6_22_23_PostTreatment2.csv 1899-12-31… 1899-12… NA            NA         
# ℹ 1,070 more rows
…
# A tibble: 2 × 1
  tick_count
       <dbl>
1         NA
2          0

tibble(datasheet = all_datasheets_cleaned) %>% 
  mutate(path_to_sheet = paste0(updated_sheet_folder, datasheet)) %>% 
  mutate(filetype = if_else(str_detect(datasheet, "csv"), "csv", "xlsx")) %>%
  mutate(real_filetype = if_else(datasheet %in% excel_files_with_csv_extension, 'xlsx', filetype)) %>% 
  mutate(data = map2(.x = real_filetype, .y = path_to_sheet, .f = read_metadata_v1)) %>% 
  mutate(nr_row_on_sheet = map_dbl(.x = data, .f = nrow))

# A tibble: 556 × 6
   datasheet       path_to_sheet filetype real_filetype data     nr_row_on_sheet
   <chr>           <chr>         <chr>    <chr>         <list>             <dbl>
 1 001/001_2023_0… C://Users//d… csv      xlsx          <tibble>               1
 2 001/001_2023_0… C://Users//d… csv      csv           <dt>                   1
 3 001/001_2023_0… C://Users//d… csv      xlsx          <tibble>               1
 4 001/001_2023_0… C://Users//d… csv      csv           <dt>                   1
 5 001/001_2023_0… C://Users//d… csv      csv           <dt>                   1
 6 001/001_2023_0… C://Users//d… csv      csv           <dt>                   1
 7 001/001_2023_0… C://Users//d… csv      csv           <dt>                   1
 8 001/001_2023_0… C://Users//d… csv      csv           <dt>                   1
 9 001/001_2023_0… C://Users//d… csv      csv           <dt>                   1
10 002/002_2023_0… C://Users//d… csv      csv           <dt>                   1
# ℹ 546 more rows
…
Warning: Expected 6 pieces. Missing pieces filled with `NA` in 1 rows [556].

house_sheet_info %>% 
  mutate(date = ymd(paste(year, month, day, sep = "-"))) %>% 
  group_by(house, date) %>% 
  summarise(n())

`summarise()` has grouped output by 'house'. You can override using the
`.groups` argument.

# A tibble: 556 × 3
# Groups:   house [66]
   house date       `n()`
   <chr> <date>     <int>
 1 001   2023-06-05     1
 2 001   2023-06-15     1
 3 001   2023-06-22     1
 4 001   2023-06-26     1
 5 001   2023-07-07     1
 6 001   2023-07-14     1
 7 001   2023-07-19     1
 8 001   2023-07-28     1
 9 001   2023-08-03     1
10 002   2023-06-05     1
# ℹ 546 more rows
…
